Homework 9
…
best_fit <- data_workflow3 |>
  last_fit(data_split)
best_fit |> collect_metrics()

# A tibble: 2 × 4
  .metric .estimator .estimate .config             
  <chr>   <chr>          <dbl> <chr>               
1 rmse    standard    3569.    Preprocessor1_Model1
2 rsq     standard       0.895 Preprocessor1_Model1

Here is the coefficient table for our model, arranged by p-values to highlight the most predictive parameters.

extract_fit_parsnip(best_fit) |> tidy() |> arrange(p.value)

# A tibble: 30 × 5
   term                                estimate std.error statistic  p.value
   <chr>                                  <dbl>     <dbl>     <dbl>    <dbl>
 1 isSummerSeason                        26491.     2012.     13.2  5.75e-30
 2 SolarRadiationAvg_poly_1              49177.     5662.      8.68 6.74e-16
 3 isAutumnSeason                        12903.     2114.      6.10 4.29e- 9
 4 isWeekend                             -2308.      398.     -5.80 2.18e- 8
 5 isSpringSeason_x_TemperatureAvg       11376.     2363.      4.82 2.65e- 6
 6 RainfallSum_poly_1                   -51088.    12393.     -4.12 5.21e- 5
 7 isSpringSeason                         7863.     2069.      3.80 1.84e- 4
 8 (Intercept)                            8535.     2522.      3.38 8.37e- 4
 9 TemperatureAvg_x_RainfallSum_poly_2   28985.     9360.      3.10 2.20e- 3
10 isAutumnSeason_x_TemperatureAvg        7050.     2665.      2.65 8.71e- 3
# ℹ 20 more rows
…
Now I configure the grid for tuning to find the optimal alpha value. I don’t know what alphas to try so I’m using grid_regular().

#A warning will occur for one value of the tuning parameter, safe to ignore
grid_lasso <- workflow_lasso |>
  tune_grid(
    resamples = data_train_10Fold,
    grid = grid_regular(penalty(), levels = 200)*25
    ) 

grid_lasso |>
  collect_metrics() |>
  filter(.metric == "rmse")

# A tibble: 200 × 7
         penalty .metric .estimator  mean     n std_err .config               
           <dbl> <chr>   <chr>      <dbl> <int>   <dbl> <chr>                 
 1 0.0000000025  rmse    standard   2885.    10    229. Preprocessor1_Model001
 2 0.00000000281 rmse    standard   2885.    10    229. Preprocessor1_Model002
 3 0.00000000315 rmse    standard   2885.    10    229. Preprocessor1_Model003
 4 0.00000000354 rmse    standard   2885.    10    229. Preprocessor1_Model004
 5 0.00000000397 rmse    standard   2885.    10    229. Preprocessor1_Model005
 6 0.00000000446 rmse    standard   2885.    10    229. Preprocessor1_Model006
 7 0.00000000501 rmse    standard   2885.    10    229. Preprocessor1_Model007
 8 0.00000000562 rmse    standard   2885.    10    229. Preprocessor1_Model008
 9 0.00000000631 rmse    standard   2885.    10    229. Preprocessor1_Model009
10 0.00000000708 rmse    standard   2885.    10    229. Preprocessor1_Model010
# ℹ 190 more rows
…
I think the variations across runs are pretty interesting. Based on sample variants each time, I see the ideal penalty land somewhere between 5 and 20, according to the curves generated for each sample. It makes me think I have errors but then I recall and realize that it is normal variance. I suspect too that the model is only lightly influenced by penalty variations in this range, so a model with alpha of 5 is generating a similar prediction to the same with alpha of 20.

Finishing this workflow, now training with the best alpha on the full training set, to complete the LASSO effort. I’m storing the model in workflow_final_lasso and the fit model in fit_lasso.

The coefficient tables for this model:

workflow_final_lasso <- workflow_lasso |>
  finalize_workflow(tune_lasso)
fit_lasso <- workflow_final_lasso |>
  fit(data_train)
tidy(fit_lasso)

# A tibble: 30 × 3
   term                            estimate penalty
   <chr>                              <dbl>   <dbl>
 1 (Intercept)                       10039.    19.8
 2 isSpringSeason                     6501.    19.8
 3 isSummerSeason                    24670.    19.8
 4 isAutumnSeason                    11475.    19.8
 5 isHoliday                         -2830.    19.8
 6 isWeekend                         -2352.    19.8
 7 isSpringSeason_x_isHoliday        -3498.    19.8
 8 isSummerSeason_x_isHoliday        -1283.    19.8
 9 isAutumnSeason_x_isHoliday        -4763.    19.8
10 isSpringSeason_x_TemperatureAvg   10371.    19.8
# ℹ 20 more rows
…
temp <- workflow_regtree |> 
  tune_grid(
    resamples = data_train_10Fold,
    grid=grid_regtree
    )

temp |> 
  collect_metrics() |>
  filter(.metric=="rmse") |>
  arrange(mean)

# A tibble: 125 × 9
   cost_complexity tree_depth min_n .metric .estimator  mean     n std_err
             <dbl>      <int> <int> <chr>   <chr>      <dbl> <int>   <dbl>
 1    0.000562              8    11 rmse    standard   3651.    10    258.
 2    0.000562             11    11 rmse    standard   3659.    10    261.
 3    0.000562             15    11 rmse    standard   3659.    10    261.
 4    0.0000000001          8    11 rmse    standard   3681.    10    260.
 5    0.0000000178          8    11 rmse    standard   3681.    10    260.
 6    0.00000316            8    11 rmse    standard   3681.    10    260.
 7    0.0000000001         11    11 rmse    standard   3689.    10    263.
 8    0.0000000178         11    11 rmse    standard   3689.    10    263.
 9    0.00000316           11    11 rmse    standard   3689.    10    263.
10    0.0000000001         15    11 rmse    standard   3689.    10    263.
# ℹ 115 more rows
# ℹ 1 more variable: .config <chr>
…
temp <- workflow_bagtree |> 
  tune_grid(
    resamples = data_train_10Fold,
    grid=grid_bagtree,
    metrics = metric_set(rmse,mae)
    )

temp |> 
  collect_metrics() |>
  #filter(.metric=="rmse") |>
  arrange(mean)

# A tibble: 54 × 9
   cost_complexity tree_depth min_n .metric .estimator  mean     n std_err
             <dbl>      <int> <int> <chr>   <chr>      <dbl> <int>   <dbl>
 1    0.00000316            8     2 mae     standard   2214.    10    167.
 2    0.00000316           15     2 mae     standard   2287.    10    162.
 3    0.0000000001          8     2 mae     standard   2320.    10    185.
 4    0.0000000001         15     2 mae     standard   2321.    10    151.
 5    0.00000316            8    21 mae     standard   2588.    10    116.
 6    0.0000000001          8    21 mae     standard   2597.    10    150.
 7    0.00000316           15    21 mae     standard   2631.    10    128.
 8    0.0000000001         15    21 mae     standard   2653.    10    166.
 9    0.00000316           15    40 mae     standard   2862.    10    115.
10    0.0000000001          8    40 mae     standard   2872.    10    146.
# ℹ 44 more rows
# ℹ 1 more variable: .config <chr>
…
temp <- workflow_randomforest |> 
  tune_grid(
    resamples = data_train_10Fold,
    grid=grid_randomforest,
    metrics = metric_set(rmse)
    )

temp |> 
  collect_metrics() |>
  #filter(.metric=="rmse") |>
  arrange(mean)

# A tibble: 27 × 9
    mtry trees min_n .metric .estimator  mean     n std_err .config             
   <int> <int> <int> <chr>   <chr>      <dbl> <int>   <dbl> <chr>               
 1    11  2000     2 rmse    standard   2980.    10    183. Preprocessor1_Model…
 2    11  1000     2 rmse    standard   2992.    10    183. Preprocessor1_Model…
 3     5  1000     2 rmse    standard   3154.    10    136. Preprocessor1_Model…
 4     5  2000     2 rmse    standard   3177.    10    149. Preprocessor1_Model…
 5     0  2000     2 rmse    standard   3224.    10    139. Preprocessor1_Model…
 6     0  1000     2 rmse    standard   3225.    10    139. Preprocessor1_Model…
 7    11  1000    21 rmse    standard   3233.    10    152. Preprocessor1_Model…
 8    11  2000    21 rmse    standard   3234.    10    151. Preprocessor1_Model…
 9     5  1000    21 rmse    standard   3485.    10    130. Preprocessor1_Model…
10     5  2000    21 rmse    standard   3512.    10    133. Preprocessor1_Model…
# ℹ 17 more rows
…
# A tibble: 2 × 4
  .metric .estimator .estimate .config             
  <chr>   <chr>          <dbl> <chr>               
1 rmse    standard       3015. Preprocessor1_Model1
2 mae     standard       2387. Preprocessor1_Model1

Based on my evaluations, the MLR is superior to the rest. My regression tree performed worst. I’ll fit the MLR finally to the entire dataset.

workflow_final_mlr |> fit(data) |> tidy()

# A tibble: 30 × 5
   term                            estimate std.error statistic  p.value
   <chr>                              <dbl>     <dbl>     <dbl>    <dbl>
 1 (Intercept)                       10188.     2302.     4.42  1.32e- 5
 2 isSpringSeason                     6830.     1884.     3.63  3.34e- 4
 3 isSummerSeason                    26625.     1814.    14.7   9.78e-38
 4 isAutumnSeason                    11356.     1933.     5.87  1.06e- 8
 5 isHoliday                         -2556.     1074.    -2.38  1.79e- 2
 6 isWeekend                         -2387.      334.    -7.15  5.74e-12
 7 isSpringSeason_x_isHoliday         -375.     2037.    -0.184 8.54e- 1
 8 isSummerSeason_x_isHoliday        -1093.     2255.    -0.484 6.28e- 1
 9 isAutumnSeason_x_isHoliday        -3000.     1789.    -1.68  9.45e- 2
10 isSpringSeason_x_TemperatureAvg   10235.     2134.     4.80  2.47e- 6
# ℹ 20 more rows
